==============================================================================
Tests                                                                         
==============================================================================
Tests.KeepitUp                                                                
==============================================================================
Keep it up                                                            | FAIL |
Element with locator 'name=billing_email' not found.
------------------------------------------------------------------------------
Tests.KeepitUp                                                        | FAIL |
1 test, 0 passed, 1 failed
==============================================================================
Tests                                                                 | FAIL |
1 test, 0 passed, 1 failed
==============================================================================
Output:  C:\Users\njegi\PycharmProjects\GiftsYoyo\pabot_results\11\output.xml
