==============================================================================
Tests                                                                         
==============================================================================
Tests.Register                                                                
==============================================================================
Register on YoyoGifts                                                 | PASS |
------------------------------------------------------------------------------
Tests.Register                                                        | PASS |
1 test, 1 passed, 0 failed
==============================================================================
Tests                                                                 | PASS |
1 test, 1 passed, 0 failed
==============================================================================
Output:  C:\Users\njegi\PycharmProjects\GiftsYoyo\pabot_results\16\output.xml
