==============================================================================
Tests                                                                         
==============================================================================
Tests.AtoasttoYou                                                             
==============================================================================
A Toast to you                                                        | FAIL |
Element with locator 'name=billing_email' not found.
------------------------------------------------------------------------------
Tests.AtoasttoYou                                                     | FAIL |
1 test, 0 passed, 1 failed
==============================================================================
Tests                                                                 | FAIL |
1 test, 0 passed, 1 failed
==============================================================================
Output:  C:\Users\njegi\PycharmProjects\GiftsYoyo\pabot_results\1\output.xml
